[
    {
        "title": "Lesão de jogador de tênis foi causada por vacinação", 
        "caption": "Durante uma partida em março de 2022, o tenista Rafael Nadal sentiu falta de ar", 
        "text":"Durante uma partida em março de 2022, o tenista Rafael Nadal sentiu falta de ar. \nAlguns usuários das redes sociais associaram esse fato à vacinação do atleta contra a Covid-19. Isso é mentira: não existe qualquer relação entre vacinas de SARS-CoV-2 e falta de ar. \nO próprio Nadal publicou em suas redes sociais que foi examinado por sua equipe médica, e que a falta de ar se deveu a uma fissura no terceiro arco costal esquerdo causada por estresse do tenista.", 
        "fake": true, 
        "image":"noticia-1.jpg",
        "layout": 1
    },
    {
        "title": "Nova fábrica do Butantan vai produzir CoronaVac, entre outras vacinas", 
        "caption": "Ao todo, estima-se que a nova fábrica produza 100 milhões de doses de imunizantes por ano", 
        "text":"O Centro de Produção Multipropósito de Vacinas terá capacidade de fabricar vacinas de cinco plataformas, entre elas contra Covid-19, zika, raiva e hepatite A. \nAo todo, estima-se que a nova fábrica produza 100 milhões de doses de imunizantes por ano. Além de permitir a fabricação de vacinas em larga escala, o CPMV é totalmente digital e automatizado, alinhado aos princípios da Indústria 4.0, gerando dados rastreáveis de todos os processos. \nA nova fábrica também conta com um laboratório com nível 3 de biossegurança, permitindo a produção de imunizantes que exigem a manipulação de organismos que representam alto risco biológico.", 
        "fake": false, 
        "image":"noticia-2.jpg",
        "layout": 2
    },
    {
        "title": "Alta cobertura vacinal não mostrou resultados para conter a pandemia", 
        "caption": "Afirmação circula em redes sociais e grupos de mensagens", 
        "text":"Ao contrário da afirmação que circula em redes sociais e grupos de mensagens, a vacinação foi e continua sendo imprescindível para salvar vidas e conter o avanço da Covid-19. \nApós o início da campanha de imunização no Brasil, o número de mortes causadas pelo SARS-CoV-2 despencou. \nEm abril de 2021, mais de 4 mil mortes eram registradas por dia no país devido à doença. Em março de 2022, o maior pico diário foi de 677 óbitos.", 
        "fake": true, 
        "image":"noticia-3.jpg",
        "layout": 3
    },
    {
        "title": "Vacina do SARS-CoV-2 foi produzida rapidamente porque já havia um imunizante contra o vírus SARS-CoV em estudo", 
        "caption": "Há cerca de dez anos cientistas chineses começaram a desenvolver uma vacina contra o SARS-CoV", 
        "text":"Há cerca de dez anos, a China enfrentou o surto de um vírus da família dos coronavírus, o SARS-CoV. Como esse vírus não era tão infeccioso, o surto não se espalhou e foi controlado com medidas de segurança. \nMas antes do surto acabar, cientistas chineses começaram a desenvolver uma vacina contra o SARS-CoV. O estudo foi interrompido quando a doença foi controlada, pois o imunizante já não era mais necessário. \nQuando o SARS-CoV-2 começou a se propagar em dezembro de 2019, os pesquisadores retomaram as antigas pesquisas do ponto onde pararam, já que os vírus eram da mesma família, e não precisaram começar do zero. Esse é um dos motivos porque a CoronaVac, produzida pelo Butantan e pela farmacêutica chinesa Sinovac, foi desenvolvida em tempo recorde.", 
        "fake": false, 
        "image":"noticia-4.jpg",
        "layout": 1
    },
    {
        "title": "Pandemias duram apenas dois anos", 
        "caption": "Por mais que, sim, algumas pandemias tenham durado apenas dois anos, isto não é uma regra", 
        "text":"Essa informação não é verdadeira. Há diversos exemplos ao longo da história de pandemias, epidemias e surtos de vírus da influenza, da peste bubônica, da varíola, entre outros, que duraram mais do que dois anos. \nPara citar só um exemplo, a pandemia de peste bubônica que assolou a Europa na Idade Média atingiu seu pico entre 1347 e 1351. Por mais que, sim, algumas pandemias tenham durado apenas dois anos, isto não é uma regra. \nOutro exemplo é a própria Covid-19: declarada pela Organização Mundial da Saúde como pandemia em março de 2020, a doença já completou dois anos e continua matando mais de 3 mil pessoas por dia em todo o mundo.", 
        "fake": true, 
        "image":"noticia-5.jpg",
        "layout": 2
    },
    {
        "title": "Vacina não impede a circulação do vírus, mas protege de casos graves e mortes pela doença", 
        "caption": "A vacinação é o melhor método de combater o vírus SARS-CoV-2, mas não impede que ele circule na população", 
        "text":"A vacinação é o melhor método de combater o vírus SARS-CoV-2, mas não impede que ele circule na população. Isso porque, mesmo imunizado, ainda é possível se contaminar e contaminar outras pessoas. \nO que a vacina faz é ajudar o organismo a enfrentar o vírus, porque o sistema imunológico estará preparado para ele. O vírus está sempre procurando um hospedeiro desprotegido, especialmente uma população sem a proteção de vacinas.\n Em um cenário em que a maioria da população está vacinada, os casos mais graves e mortes de uma doença se concentram nas pessoas não imunizadas.", 
        "fake": false, 
        "image":"noticia-6.jpg",
        "layout": 3
    },
    {
        "title": "Ômicron foi inventada para justificar efeitos colaterais das vacinas", 
        "caption": "O vídeo que circula nas redes sociais afirmando isso é mentira", 
        "text":"O vídeo que circula nas redes sociais afirmando isso é mentira. Os vírus têm a característica de sofrerem mutações para se adaptar ao ambiente em que vivem. Geralmente isso acontece para que eles consigam continuar se replicando quando encontram dificuldades para infectar organismos protegidos. \nA ômicron é uma variante natural do vírus SARS-CoV-2, que possui mais de 50 mutações em relação à cepa original, e causa nas pessoas doentes sintomas semelhantes aos das demais variantes da Covid-19. \nJá os efeitos adversos causados pelas vacinas são bem diferentes. A maioria dos relatos relacionados à CoronaVac, por exemplo, são dor no local da aplicação da injeção, febre baixa ou cansaço passageiro.", 
        "fake": true, 
        "image":"noticia-7.jpg",
        "layout": 1
    },
    {
        "title": "Idosos apresentam resposta imunológica à vacinação menos potente", 
        "caption": "Pessoas idosas passam por um fenômeno biológico chamado imunossenescência", 
        "text":"Pessoas idosas passam por um fenômeno biológico chamado imunossenescência - uma característica que se relaciona aos processos naturais do sistema imunológico, e não à efetividade da vacina em si. \nPor isso, essa população responde menos à produção de anticorpos em relação aos mais jovens. Além disso, fatores individuais do organismo e a presença de comorbidades também devem ser levados em consideração. \nOs estudos clínicos e de efetividade mostram que nenhum imunizante apresenta proteção completa contra a infecção por SARS-CoV-2, mas que todos protegem contra as formas graves e mortes pela doença. A CoronaVac, vacina do Butantan, já se mostrou altamente eficaz na prevenção de óbitos e casos graves de Covid-19, inclusive em idosos.", 
        "fake": false, 
        "image":"noticia-8.jpg",
        "layout": 2
    },
    {
        "title": "Quem toma vacina pode apresentar sintomas da Covid-19 e positivar o teste", 
        "caption": "Esse comentário vem circulando em grupos de bate-papo, mas é falso", 
        "text":"Esse comentário vem circulando em grupos de bate-papo, mas é falso. A vacina, em nenhum caso, é capaz de provocar a doença. \nPelo contrário, ela protege quem entrar em contato com o patógeno.\n Se alguém for vacinado e depois positivar o teste para Covid-19, isso quer dizer que ele já estava com o vírus inoculado, mas isso não tem qualquer vínculo com a vacina. \nPor não causar a doença, a vacina também não traz sintomas da Covid-19 para o imunizado. O que acontece, por vezes, é que as reações adversas à vacina e os sintomas da Covid-19 podem ser semelhantes, como dor de cabeça e febre.", 
        "fake": true, 
        "image":"noticia-9.jpg",
        "layout": 3
    },
    {
        "title": "Vacinas já mostraram comprovação científica contra Covid-19, hidroxicloroquina não", 
        "caption": "A cloroquina é um medicamento aprovado para uso, mas que não tem eficácia comprovada contra a Covid-19", 
        "text":"A cloroquina é um medicamento aprovado para uso, mas que não tem eficácia comprovada contra a Covid-19. Um estudo desenvolvido pela Organização Mundial da Saúde (OMS) no início da pandemia com mais de seis mil pessoas para encontrar tratamentos para a doença demonstrou que a cloroquina não tem efeito na redução de mortes e, por isso, não deve ser utilizada para combater a Covid-19. \nDiferentemente, as vacinas já mostraram sua eficácia em testes clínicos e no mundo real. A CoronaVac, por exemplo, provou sua efetividade em diversas pesquisas, uma delas o Projeto S, estudo pioneiro que avaliou o impacto de uma vacina no mundo real durante uma pandemia. \nOs resultados mostraram efetividade de 80,5% do imunizante contra casos sintomáticos, de 95% contra hospitalizações e de 94,9% contra mortes.", 
        "fake": false, 
        "image":"noticia-10.jpg",
        "layout": 1
    }
]